…
<img src="man/figures/README-model-1.png" width="100%" />

  - how about a michaelis-menten plot?

<!-- end list -->

``` r
# some more data
michaelis_menten
#> # A tibble: 180 x 4
#>    ExpID Concentration  Time Activity
#>    <int>         <dbl> <int>    <dbl>
#>  1     1         0.005    20  -0.0162
#>  2     2         0.005    40   0.0522
#>  3     3         0.005    60   0.171 
#>  4     4         0.005    80   0.147 
#>  5     5         0.005   100   0.187 
#>  6     6         0.005   120   0.205 
#>  7     7         0.005    20   0.0233
#>  8     8         0.005    40   0.136 
#>  9     9         0.005    60   0.108 
#> 10    10         0.005    80   0.155 
#> # … with 170 more rows
…
